module gitlab.com/fajarcandraaa/short_url

go 1.19

require (
	github.com/dgrijalva/jwt-go v3.2.0+incompatible
	github.com/gorilla/mux v1.8.0
	github.com/jinzhu/gorm v1.9.16
	github.com/joho/godotenv v1.5.1
	github.com/tcnksm/go-httpstat v0.2.0
)

require (
	github.com/davecgh/go-spew v1.1.1 // indirect
	github.com/jinzhu/now v1.1.5 // indirect
	github.com/mattn/go-sqlite3 v1.14.17 // indirect
	github.com/pmezard/go-difflib v1.0.0 // indirect
	gopkg.in/yaml.v3 v3.0.1 // indirect
)

require (
	github.com/go-ozzo/ozzo-validation/v4 v4.3.0
	github.com/go-sql-driver/mysql v1.7.1
	github.com/google/uuid v1.3.1
	github.com/jinzhu/inflection v1.0.0 // indirect
	github.com/lib/pq v1.10.9
	github.com/pkg/errors v0.9.1
	github.com/stretchr/testify v1.8.4
	golang.org/x/crypto v0.12.0
)
